91845 43834
29872 19669
89231 67740
31364 95058
1603 41156
80659 14112
70854 17776
34675 84085
83174 23507
77544 39279
34013 86970
55222 18893
87210 34649
40774 32102
73921 96953
65847 91846
44592 84996
94545 90930
79460 70646
71615 27049
41116 55340
35845 43956
906 76271
79046 11301
55926 92802
56476 77211
36600 79406
39743 92264
48413 68683
87304 39320
54593 12421
95331 75810
97999 85274
65720 83275
43964 44146
67114 53444
36340 33499
37848 93800
3298 53290
95351 80978
26002 53283
76255 78741
60532 32066
10222 30648
46696 90325
14040 57806
17412 37299
14320 31201
27428 63630
13410 38050
65127 90512
76291 11277
17160 19285
63698 87429
14757 21024
75948 98614
38413 91798
85338 25722
46320 18461
17358 71903
39788 35175
69761 93099
26162 89081
72156 79853
32153 72194
72569 81530
52292 42101
90401 69780
2116 44292
95775 88295
30646 47596
77033 94686
96493 45032
66864 41079
12488 47975
2960 34964
53156 24965
66521 21440
20376 759
85025 57870
83716 4136
79285 76768
25535 30019
12362 68768
22791 24549
71720 14895
11499 98366
99524 13925
41233 28764
98351 31806
49723 63482
80847 17051
91403 62049
31516 68103
35140 59279
62395 31637
24269 71931
21592 86926
80179 34905
36068 31332
85251 2151
92930 33492
44585 36465
87810 67682
19977 48106
32333 62806
77374 22959
52685 31668
98252 40469
34995 83749
55948 38301
2527 59576
63529 3050
94350 98911
43667 57950
92125 92857
66144 58290
45231 5322
66528 2705
16586 68316
11770 48601
77149 59296
53086 85682
49362 94665
58728 40923
86049 67266
51204 3219
99647 71102
26514 32070
73624 49339
60238 48374
99766 68808
7098 30202
8968 39210
53734 4810
4643 43701
20023 8712
4274 31508
89323 40540
48046 92189
80640 85617
55876 89350
59777 41123
74387 38699
6223 5048
84028 16100
96797 17846
31818 85814
44830 53887
50110 40494
6354 86175
1750 85229
97175 9969
25025 69420
25746 85670
95113 33197
44961 59161
21516 81117
28462 28125
4894 89460
10310 72470
12007 56952
77856 18418
33526 6320
50013 98212
87327 88477
48291 7776
79625 98800
19323 90822
31585 94604
94236 65425
22040 76217
26948 57872
51863 55648
83188 54043
39915 87723
76875 6065
68381 99023
5453 82696
8246 30050
63190 50154
91125 44846
98555 16399
55167 34742
27515 81161
97644 74340
18284 7139
18990 76156
16530 70967
94827 16616
24622 30075
85138 82031
46754 17736
82855 6271
48208 47027
54918 87375
102 20177
62372 39689
88347 56443
33445 62605
81023 5042
29241 6327
48491 79452
34539 18014
68468 46896
31073 30232
8466 74589
78681 28718
50437 39704
67842 66330
74483 53314
31031 78883
22731 6881
45073 63535
98927 31149
29626 98651
52142 29147
1310 3010
67117 43086
74182 86055
97640 81099
21846 27604
74312 88187
7745 73723
81752 55909
48239 47174
21464 7976
78163 96438
38917 55856
82650 77929
29934 3099
2030 13621
10308 23877
7831 29244
86117 97900
732 1565
28906 54055
66460 13917
57228 21678
16130 79762
16545 39650
28879 80979
46721 67146
63718 38695
38112 25529
63757 91516
22704 1252
22038 37279
10531 25665
20572 34580
