145355 787984 509
995542 145986 525
271760 243408 407
998888 452366 525
613529 276250 470
464792 129345 449
180096 174465 347
97688 651995 509
108560 572050 470
158818 582804 470
458685 474644 444
967482 269646 525
671410 298612 509
416772 710035 509
925686 301721 525
669293 389675 509
883884 495156 525
743182 95564 509
946754 484863 525
865751 271226 525
826787 84912 509
815450 956752 525
485693 844788 525
233302 226194 443
699367 819880 504
39405 315816 443
163651 40067 383
745609 325233 509
972157 172544 525
378792 465339 449
614825 525392 452
834568 922017 525
716107 988346 525
336118 112898 443
580202 72720 470
756889 289568 509
618490 467575 470
660663 626561 429
649408 708312 504
971062 973157 352
975554 642747 525
486736 482701 338
478143 281610 449
798506 834074 450
87724 228973 386
697622 108855 509
189573 976137 525
803077 862868 525
397431 974716 525
830279 741951 468
891306 360698 525
77535 9219 351
553369 89132 470
620301 876237 525
865585 934368 476
315090 850784 525
288605 624192 470
906795 109161 525
111583 928010 525
150853 514559 470
858453 271487 525
776591 824578 468
681069 790115 504
288343 102065 443
524897 729619 509
216528 991737 525
105735 333753 443
327228 850617 525
956078 416821 525
736290 503163 509
269704 145525 443
804507 498708 509
675572 96448 509
2011 788674 509
393259 284092 441
761641 652963 504
347654 229151 443
104989 446029 449
27137 49289 324
456319 377251 449
815710 112214 509
692185 997114 525
72975 50627 340
265484 552013 470
424282 852885 525
483527 100395 449
291652 633791 509
339242 989993 525
865621 742848 525
372814 523623 470
462045 910288 525
948889 890029 507
598160 994274 525
844458 919249 476
609727 916361 525
219346 635302 509
899871 498799 525
501130 494334 395
83974 1671 351
488617 724567 509
301501 14246 443
785869 936097 525
404921 576555 470
992194 108532 525
92118 264206 443
630221 945691 525
932221 908735 476
49709 561469 470
535132 888693 525
741969 295464 509
981587 155857 525
960128 720123 525
248284 553993 470
325824 38217 443
794948 317961 509
248434 352126 441
615408 57320 470
818362 837381 450
650131 27567 509
609474 433945 470
365369 675281 509
964275 300850 525
654180 874036 525
280724 869162 525
420902 812554 509
601447 116653 470
620894 111183 470
963801 644699 525
257655 883014 525
641247 970644 525
652384 227697 509
41768 895684 525
45111 752376 509
417871 280001 449
580775 69188 470
670948 826952 504
47268 187186 383
274352 655803 509
296049 751752 509
815412 243716 509
2779 365695 443
126201 380530 443
835312 514442 509
657370 789493 504
598528 723311 509
608092 613233 403
826731 85508 509
377453 824669 509
450276 473332 444
442794 325579 449
542345 528459 408
481695 526644 470
845171 723263 525
418884 413213 387
982284 151928 525
798161 720625 468
883341 508564 525
983821 570666 525
512771 189667 470
889036 663694 525
80909 537997 470
404104 185614 443
748676 197038 509
964611 680539 525
800067 702272 504
302398 596046 470
977231 827291 525
940735 475931 525
563710 836062 509
185595 240858 443
941447 72413 525
359899 87663 443
571082 17643 470
802550 234968 509
208554 466215 449
248532 102260 443
868697 778791 525
559233 955882 525
774428 777374 437
66668 586242 470
949885 398591 525
262274 559470 470
834470 384230 509
43181 366287 443
69453 287166 443
433483 944298 525
651259 219277 509
90929 838821 525
580998 312793 470
112957 183418 383
280488 92125 443
968260 200072 525
157576 327070 443
668933 672865 367
6587 987487 525
74741 35968 340
44497 689230 509
603298 721945 509
261760 287041 407
194664 455082 449
673291 49542 509
650955 168781 509
465355 895764 525
189147 838616 525
660133 185386 509
2365 163815 383
129565 612484 470
642619 933760 525
998428 691413 525
866287 468487 525
942090 510376 525
502367 519298 470
470566 95376 449
701399 5488 509
955507 443192 525
888561 59743 525
69662 307969 443
775583 983412 525
125828 881205 525
88884 146164 375
345163 733747 509
844553 216084 525
257909 650139 509
419574 803862 509
102044 69653 351
998103 103244 525
620106 855494 525
343622 322327 384
744179 753793 424
897901 914510 476
163806 280702 443
954536 207271 525
430499 834913 509
997724 313645 525
294254 627037 509
555470 565488 421
144090 480140 449
517883 799228 509
537979 156171 470
169392 519775 470
512949 570509 452
541619 392212 470
911844 56493 525
800768 779941 468
444685 85938 449
357679 346362 379
366573 919599 525
297816 513919 470
181294 951367 525
728599 356625 509
